Bhavik Bhatt
…
Data Curation and Management

The first step, after you have downloaded the dataset into the current directory, is to read the csv file and represent it as a table using R. To load the csv file, we will use a function, read.csv(), which will turn the organized data into a table. In the following code, you can also see that we have included all of the required libraries for this tutorial before doing anything else with the data.

The first 10 rows of the data, in table form, can be seen below the code. The head function simply retrieves the first n rows of the table, where n is 10 in this case. In these 10 rows, we can see the different variables associated with each track, including id, artist, energy, danceability, etc. We use the tidyverse function as_tibble to make the data frame more readable and to see the variables and data types. Tibbles are just a modern take on data frames and supply less data. We will see actual data frames in the next portion of the tutorial.

library(tidyverse)
library(dplyr)
library(gridExtra)
library(tree)

df <- read.csv("featuresdf.csv")
as_tibble(df)

## # A tibble: 100 x 16
##                       id
##                   <fctr>
##  1 7qiZfU4dY1lWllzX7mPBI
##  2 5CtI0qwDJkDQGwXD1H1cL
##  3 4aWmUDTfIPGksMNLV2rQP
##  4 6RUKPb4LETWmmr3iAEQkt
##  5 3DXncPQOG4VBw3QHh3S81
##  6 7KXjTSCq5nL1LoYtL7XAw
##  7 3eR23VReFzcdmS7TYCrhC
##  8 3B54sVLJ402zGa6Xm4YGN
##  9 0KKkJNfGyhkQ5aFogxQAP
## 10 3NdDpSvN911VPGivFlV5d
## # ... with 90 more rows, and 15 more variables: name <fctr>,
## #   artists <fctr>, danceability <dbl>, energy <dbl>, key <dbl>,
## #   loudness <dbl>, mode <dbl>, speechiness <dbl>, acousticness <dbl>,
## #   instrumentalness <dbl>, liveness <dbl>, valence <dbl>, tempo <dbl>,
## #   duration_ms <dbl>, time_signature <dbl>
…
